…
    klass
}

Vi kan börja med att skapa en klass på 30 elever.

Hur kan vi göra om det här till betyg?

library(tidyverse)
klass1 <- skapa_klass(antal_elever = 30)

klass1

## # A tibble: 30 x 2
##    namn      provresultat
##    <chr>            <int>
##  1 Hakon               76
##  2 Zejnep              79
##  3 Belal               93
##  4 Fathi               79
##  5 Haxhere             95
##  6 Milania             87
##  7 Katharina           84
##  8 Hermon              53
##  9 Fariborz            57
## 10 Setayesh            43
## # … with 20 more rows
Det enklaste sättet att göra om provresultateten till betyg i R är genom funktionen case_when() som vi använder i mutate(). Det här gäller så klart inte bara provresultat utan du kan sätta upp vilka typer av villkor du vill, och de behöver inte bara vara numeriska.

klass1 <- klass1 %>% 
    mutate(betyg = case_when(
        provresultat >= 95 ~ "A",
        provresultat >= 85 ~ "B",
        provresultat >= 75 ~ "C",
        provresultat >= 65 ~ "D",
        provresultat >= 55 ~ "E",
        provresultat < 55 ~ "F",
    ))

klass1

## # A tibble: 30 x 3
##    namn      provresultat betyg
##    <chr>            <int> <chr>
##  1 Hakon               76 C    
##  2 Zejnep              79 C    
##  3 Belal               93 B    
##  4 Fathi               79 C    
##  5 Haxhere             95 A    
##  6 Milania             87 B    
##  7 Katharina           84 C    
##  8 Hermon              53 F    
##  9 Fariborz            57 E    
## 10 Setayesh            43 F    
## # … with 20 more rows
…
