…
Hur Kolada fungerar

På Koladas hemsida kan du enkelt söka efter olika KPI-er. Där kan du också få en enkel tabell och visualisering av resultatet. rKolada ger oss möjlighet att programmatiskt ta ut dessa tabeller, vilket underlättar om vi behöver ta ut statistik fler gånger än en.

Med funktionen get_kpi() får vi en tabell med alla KPI-er som finns tillgängliga.

library(rKolada)
library(tidyverse)

kpis <- get_kpi()

kpis

## # A tibble: 4,887 x 13
##    auspices description has_ou_data id    is_divided_by_g… municipality_ty…
##    <chr>    <chr>       <lgl>       <chr>            <int> <chr>           
##  1 E        Personalko… FALSE       N000…                0 K               
##  2 E        Personalko… FALSE       N000…                0 K               
##  3 X        Kommunalek… FALSE       N000…                0 K               
##  4 <NA>     Externa in… FALSE       N000…                0 K               
##  5 <NA>     Inkomstutj… FALSE       N000…                0 K               
##  6 <NA>     Kostnadsut… FALSE       N000…                0 K               
##  7 X        Reglerings… FALSE       N000…                0 K               
##  8 <NA>     Utjämnings… FALSE       N000…                0 K               
##  9 X        Införandeb… FALSE       N000…                0 K               
## 10 X        Strukturbi… FALSE       N000…                0 K               
## # … with 4,877 more rows, and 7 more variables: operating_area <chr>,
## #   ou_publication_date <chr>, perspective <chr>, prel_publication_date <chr>,
## #   publ_period <chr>, publication_date <chr>, title <chr>
…
För att få ner data för detta KPI behöver 1) ett ID och 2) specificera vilken eller vilka kommuner du vill ha data för.

ID får du enkelt ut genom kpi_extract_ids().

kpi_extract_ids(kpi_bygglov)

## [1] "N07925"

De kommuner, eller regionala indelningar som finns, kan vi på motsvarande sätt få genom get_municipality().

get_municipality()

## # A tibble: 312 x 3
##    id    title      type 
##    <chr> <chr>      <chr>
##  1 1440  Ale        K    
##  2 1489  Alingsås   K    
##  3 0764  Alvesta    K    
##  4 0604  Aneby      K    
##  5 1984  Arboga     K    
##  6 2506  Arjeplog   K    
##  7 2505  Arvidsjaur K    
##  8 1784  Arvika     K    
##  9 1882  Askersund  K    
## 10 2084  Avesta     K    
## # … with 302 more rows
…
# Get values
grp_data <- get_values(
  kpi = kpi_id,
  municipality = c(
    munic_grp,
    finspang_id
  )
)

grp_data

## # A tibble: 24 x 8
##    kpi    municipality_id  year count gender value municipality municipality_ty…
##    <chr>  <chr>           <int> <int> <chr>  <dbl> <chr>        <chr>           
##  1 N07925 0562             2015     1 T       0.7  Finspång     K               
##  2 N07925 0687             2015     1 T       2.3  Tranås       K               
##  3 N07925 0884             2015     1 T       0.6  Vimmerby     K               
##  4 N07925 1082             2015     1 T       1.4  Karlshamn    K               
##  5 N07925 1272             2015     1 T       6    Bromölla     K               
##  6 N07925 1472             2015     1 T       1.4  Tibro        K               
##  7 N07925 1981             2015     1 T       3.8  Sala         K               
##  8 N07925 1984             2015     1 T       0.9  Arboga       K               
##  9 N07925 0562             2017     1 T       4.54 Finspång     K               
## 10 N07925 0687             2017     1 T       8.57 Tranås       K               
## # … with 14 more rows
…
