…
För att läsa in Excel-filen använder vi paketet readxl och tidyverse. Vi hoppar över de två första raderna i arbetsboken som är tomma och läser bara in de fem första kolumnerna. Vi använder också paketet janitor och funktionen clean_names() för att få lite bättre ordning på kolumnnamnen.

library(tidyverse)
library(readxl)
library(janitor)

ets_ex <- read_excel("Forecast_ets_example.xlsx", skip = 2) %>% 
    select(1:5) %>% 
    clean_names()

Inspekterar vi arbetsbladet så ser vi att det handlar om antalet passagerare på en flygplats och att det är kolumnen airport_passengers som vi ska bygga en prognos på. De andra kolumnerna innehåller värden för den prognos som gjorts i Excel.

ets_ex

## # A tibble: 81 x 5
##    date                airport_passeng… forecast_airpor… lower_confidenc…
##    <dttm>                         <dbl>            <dbl>            <dbl>
##  1 2009-01-01 00:00:00          2644539               NA               NA
##  2 2009-02-01 00:00:00          2359800               NA               NA
##  3 2009-03-01 00:00:00          2925918               NA               NA
##  4 2009-04-01 00:00:00          3024973               NA               NA
##  5 2009-05-01 00:00:00          3177100               NA               NA
##  6 2009-06-01 00:00:00          3419595               NA               NA
##  7 2009-07-01 00:00:00          3649702               NA               NA
##  8 2009-08-01 00:00:00          3650668               NA               NA
##  9 2009-09-01 00:00:00          3191526               NA               NA
## 10 2009-10-01 00:00:00          3249428               NA               NA
## # … with 71 more rows, and 1 more variable:
## #   upper_confidence_bound_airport_passengers <dbl>
…
